﻿1,FanYong,教授,名古屋大学,,工学研究科,バイオメカニクス研究室,,,,,15000000,1,20170627,20170627
2,GerwinGub,准教授,北海道大学,,,,,,,,15001000,3,20170721,20170721
3,QURUI,助教授,東京工業大学工学院,,,,,,,,15002000,5,20170206,20170206
4,インターメタリックス株式会社宇根,学生,東北大学,,,未来科学技術共同研究センター,,,,,15003000,7,20090827,20090827
5,安達昌紘,講師,大阪大学大学院,,工学研究科,梶島・竹内研究室,,,,,15004000,9,20181101,20181101
6,安田洋司,職員,東京工芸大学,工学部,,薄膜デバイス研究室,,,,,15005000,11,20181109,20181109
7,伊集院寛仁,教授,秋田大学,,,,,,,,15006000,13,20141110,20141110
8,伊東優樹,准教授,大阪歯科大学,,,有歯補綴咬合学講座,,,,,15007000,15,20150514,20150514
9,伊部徳朗,助教授,慶應義塾大学,理工学部,電子工学科,内田研究室,,,,,15008000,17,20170829,20170829
10,井ノ上泰輝,学生,大阪大学大学院,,工学研究科,ナノマテリアル領域,,,,,15009000,19,20201102,20201102
11,井上大平,講師,法政大学,,,,,,,,15010000,21,20110801,20110801
12,井上陽子,職員,武蔵野大学,,,製剤学教室,,,,,15011000,23,20080522,20080522
13,稲垣紫緒,教授,九州大学,,,理学研究院物理学部門複雑物性研究室,,,,,15012000,25,20190904,20190904
14,稲見英人,准教授,名古屋大学,医学部,眼科,,,,,,15013000,27,20201104,20201104
15,稲守孝哉,助教授,名古屋大学,工学部,,稲守研究室,,,,,15014000,29,20200521,20200521
16,羽場麻希子,学生,東京大学,,,,,,,,15015000,31,20121213,20121213
17,鵜川眞也,講師,名古屋市立大学大学院,,医学研究科,基礎医科学講座機能組織学分野,,,,,15016000,33,20130607,20130607
18,永岡健司,職員,東北大学,,,吉田・坂本・永岡研究室,,,,,15017000,35,20170510,20170510
19,益田航,教授,滋賀県立大学,,,鳥人間研究会,,,,,15018000,37,20131025,20131025
20,遠藤公介,准教授,神奈川工科大学,,システムデザイン工学科,C-113,,,,,15019000,39,20071003,20071003
21,奥田剛司,助教授,立命館大学,,,,,,,,15020000,41,20200218,20200218
22,奥田和宜,学生,大阪工業大学,,工学研究科,宇宙推進工学研究室,,,,,15021000,43,20171211,20171211
23,横井太史,講師,東京医科歯科大学,,,生体材料工学研究所,,,,,15022000,45,20210427,20210427
24,横山真弓,職員,兵庫県立大学,,,自然・環境科学研究所,,,,,15023000,47,20201023,20201023
25,横山誉宗,教授,慶應義塾大学,理工学部,電子工学科,内田研究室,,,,,15024000,49,20180404,20180404
26,横田陽弘,准教授,日本大学,理工学部,,,,,,,15025000,51,20090816,20090816
27,岡安倫矢,助教授,東京大学,,,天文部,,,,,15026000,53,20120903,20120903
28,岡本亘貴,学生,芝浦工業大学,,,航空研究開発部,,,,,15027000,55,20180426,20180426
29,岡留剛,講師,関西学院大学,工学部,,,,,,,15028000,57,20210601,20210601
30,下川慶久,職員,慶應義塾大学,理工学部,電子工学科,内田研究室,,,,,15029000,59,20161220,20161220
31,加藤太朗,教授,東京大学,,,,,,,,15030000,61,20201226,20201226
32,加藤卓也,准教授,早稲田大学,,,,,,,,15031000,63,20121113,20121113
33,河野通就,助教授,慶應義塾大学,,,筧康明研究室,,,,,15032000,65,20140527,20140527
34,蟹由惇,学生,同志社大学大学院,理工学部,,噴霧・燃焼工学研究室,,,,,15033000,67,20171114,20171114
35,外山貴彦,講師,名古屋造形大学,,,情報表現領域,,,,,15034000,69,20200905,20200905
36,関口寛人,職員,豊橋技術科学大学,,電気・電子情報工学系,集積電子システム分野,,,,,15035000,71,20101215,20101215
37,関谷弘太,教授,東京電機大学,,,,,,,,15036000,73,20131104,20131104
38,関谷竜一,准教授,芝浦工業大学,,,（株）ミカミ,,,,,15037000,75,20130808,20130808
39,丸山伸伍,助教授,東北大学大学院,,工学研究科応用化学専攻,松本研究室,,,,,15038000,77,20140902,20140902
40,丸山隆浩,学生,名城大学,理工学部,応用化学科,,,,,,15039000,79,20151007,20151007
41,菊池弘昭,講師,岩手大学,,,,,,,,15040000,81,20170312,20170312
42,菊田智,職員,東京大学,,,地文研究会天文,,,,,15041000,83,20120924,20120924
43,吉野竜乃介,教授,金沢工業大学,,,,,,,,15042000,85,20190706,20190706
44,橘郁哉,准教授,横浜国立大学,,,,,,,,15043000,87,20191029,20191029
45,久保田雅則,助教授,東京大学,,,,,,,,15044000,89,20090312,20090312
46,宮下令央,学生,東京大学,,,,,,,,15045000,91,20160421,20160421
47,宮原正明,講師,広島大学,,,,,,,,15046000,93,20190820,20190820
48,宮崎秀俊,職員,名古屋工業大学大学院,,工学研究科物理工学専攻,,,,,,15047000,95,20210422,20210422
49,宮崎翔,教授,東京工芸大学,,,,,,,,15048000,97,20121108,20121108
50,宮田一輝,准教授,金沢大学,,,,,,,,15049000,99,20200204,20200204
51,宮田耕,助教授,慶應義塾大学,理工学部,電子工学科,内田研究室,,,,,15050000,101,20150406,20150406
52,宮田梨乃,学生,名城大学,理工学部,材料機能工学科,,,,,,15051000,103,20200828,20200828
53,宮木直樹,講師,東京電機大学,未来科学,ロボットメカトロニクス学科,情報駆動制御研究室,,,,,15052000,105,20131204,20131204
54,京都営業所堤,職員,同志社大学,,,,,,,,15053000,107,20121002,20121002
55,橋田朋子,教授,早稲田大学,基幹理工学部,表現工学科,,,,,,15054000,109,20160419,20160419
56,橋本将和,准教授,名古屋大学,工学部,,長野研究室,,,,,15055000,111,20200930,20200930
57,橋本竜一,助教授,東京電機大学,,,,,,,,15056000,113,20131112,20131112
58,玉井隆光,学生,愛知教育大学財務企画課検収センター経由キャリア支援課,,,,,,,,15057000,115,20140906,20140906
59,近藤皓之,講師,東京大学,,,設計工学研究室,,,,,15058000,117,20131105,20131105
60,金子武志,職員,埼玉大学,,,,,,,,15059000,119,20150820,20150820
61,金子和夢,教授,滋賀県立大学,,,びわこ航空技術研究会BiwaTech,,,,,15060000,121,20210102,20210102
62,金尚宏,准教授,東京大学,,,,,,,,15061000,123,20181206,20181206
63,熊谷直人,助教授,徳島大学,,,,,,,,15062000,125,20151027,20151027
64,栗原徹,学生,高知工科大学,,,情報学群,,,,,15063000,127,20160829,20160829
65,栗本遼,講師,滋賀県立大学,工学部,機械システム工学科,,,,,,15064000,129,20150928,20150928
66,桑原大介,職員,中部大学,工学部,,工学基礎教室,,,,,15065000,131,20190716,20190716
67,権田豊,教授,新潟大学,農学部,,,,,,,15066000,133,20130522,20130522
68,鍵谷豪,准教授,北里大学,,,,,,,,15067000,135,20180731,20180731
69,元島史尋,助教授,京都産業大学,総合生命科学部,生命システム学科,,,,,,15068000,137,20120525,20120525
70,弦巻賢介,学生,明治大学,,,黒曜石研究センター,,,,,15069000,139,20120907,20120907
71,戸高孝,講師,大分大学,,,,,,,,15070000,141,20171023,20171023
72,呉井洋太,職員,早稲田大学,,,,,,,,15071000,143,20130516,20130516
73,江越啓太,教授,滋賀県立大学,,,航空研究会Uaｆｇ,,,,,15072000,145,20180710,20180710
74,江端宏之,准教授,九州大学,,,,,,,,15073000,147,20190830,20190830
75,高岸瑞生,助教授,東京理科大学,,,機械工学研究会,,,,,15074000,149,20190718,20190718
76,高橋綱己,学生,九州大学,,,先導物質化学研究所,,,,,15075000,151,20180214,20180214
77,高木智博,講師,金沢工業大学,,,,,,,,15076000,153,20120907,20120907
78,合原一究,職員,筑波大学,,,,,,,,15077000,155,20180530,20180530
79,合崎遼,教授,東京理科大学,,,,,,,,15078000,157,20130715,20130715
80,黒井邦巧,准教授,神戸学院大学,薬学部,,,,,,,15079000,159,20210610,20210610
81,黒田優貴,助教授,山口東京理科大学,,,,,,,,15080000,161,20151208,20151208
82,今井むつみ,学生,慶應義塾大学,,,,,,,,15081000,163,20180723,20180723
83,今井大地,講師,名城大学,,,,,,,,15082000,165,20210526,20210526
84,今津啓太,職員,東京理科大学,,,機械工学研究会,,,,,15083000,167,20130422,20130422
85,佐軒凌太,教授,芝浦工業大学,,,,,,,,15084000,169,20180625,20180625
86,佐々木慧,准教授,武蔵野美術大学,,,,,,,,15085000,171,20190611,20190611
87,佐々木大輔,助教授,日本大学理工学部,,,,,,,,15086000,173,20140207,20140207
88,佐藤直久,学生,東京大学,,,宇宙線研究所,,,,,15087000,175,20200124,20200124
89,佐伯聡史,講師,富山大学,,,,,,,,15088000,177,20130706,20130706
90,斎藤雄太,職員,慶應義塾大学,理工学部,電子工学科,内田研究室,,,,,15089000,179,20180615,20180615
91,細見拓郎,教授,九州大学,,,先導物質化学研究所柳田研究室,,,,,15090000,181,20190905,20190905
92,坂田文哉,准教授,名城大学理,工学部,,エコノパワークラブ,,,,,15091000,183,20130425,20130425
93,坂本宗明,助教授,金沢工業大学,,,,,,,,15092000,185,20141013,20141013
94,坂本祐二,学生,東北大学,,,,,,,,15093000,187,20200128,20200128
95,榊原涼,講師,金沢大学,,,,,,,,15094000,189,20200124,20200124
96,鷺,職員,神戸大学,発達科学部,人間発達環境学研究科,伊藤真之研究室G棟402,,,,,15095000,191,20101222,20101222
97,三宅資,教授,立教大学,,,,,,,,15096000,193,20151107,20151107
98,参川浩子,准教授,大阪成蹊大学,芸術学部,,,,,,,15097000,195,20090123,20090123
99,山岡潤一,助教授,慶應義塾大学,,,筧康明研究室,,,,,15098000,197,20160603,20160603
100,山口聖人,学生,名古屋大学,,,,,,,,15099000,199,20191010,20191010
101,山崎,講師,神戸大学大学院,,工学研究科,塚本・寺田研究室,,,,,15100000,201,20150416,20150416
102,山崎優理,職員,慶應義塾大学,理工学部,電子工学科,内田研究室,,,,,15101000,203,20150722,20150722
103,山子剛,教授,宮崎大学,,,,,,,,15102000,205,20200311,20200311
104,山知亮介,准教授,慶應義塾大学,理工学部,電子工学科,内田研究室,,,,,15103000,207,20170623,20170623
105,山田浩史,助教授,早稲田大学,,,,,,,,15104000,209,20161017,20161017
106,山田航大,学生,東京大学,,,,,,,,15105000,211,20191108,20191108
107,山藤浩明,講師,大阪大学大学院,,情報科学研究科マルチメディア工学専攻,松下研究室,,,,,15106000,213,20200527,20200527
108,山本和宜,職員,工学院大学大学院,,工学研究科,機械工学専攻クリーンエネルギーシステム研究室,,,,,15107000,215,20140602,20140602
109,残間大幸,教授,石巻専修大学,理工学部,,山内研究室,,,,,15108000,217,20100908,20100908
110,市川創平,准教授,同志社大学大学院,理工学部,,噴霧・燃焼工学研究室,,,,,15109000,219,20171210,20171210
111,糸井淳一,助教授,千葉大学,,,大学院電気電子系人工システム工学専攻,,,,,15110000,221,20150207,20150207
112,柴田すみれ,学生,多摩美術大学,,,,,,,,15111000,223,20181102,20181102
113,柴田真理朗,講師,東京海洋大学,,,,,,,,15112000,225,20170830,20170830
114,秋葉雅大,職員,東京都市大学,,,世田谷キャンパス熱流体システム実験室（10号館）,,,,,15113000,227,20091015,20091015
115,春本匠太,教授,京都医療科学大学,医療科学部,放射線技術学科,森研究室,,,,,15114000,229,20160219,20160219
116,勝山裕,准教授,早稲田大学,,,佐藤拓朗研究室,,,,,15115000,231,20200604,20200604
117,勝崇晴,助教授,名古屋大学,工学部,工学研究科,結晶材料工学専攻大槻研究室,,,,,15116000,233,20171018,20171018
118,勝又竜,学生,名古屋大学,医学部,神経内科,,,,,,15117000,235,20130926,20130926
119,小根山,講師,東京理科大学,,,野田文化会天文研究会,,,,,15118000,237,20191111,20191111
120,小山和也,職員,千葉工業大学,,,,,,,,15119000,239,20151006,20151006
121,小西宏紀,教授,東京電機大学,,,,,,,,15120000,241,20181222,20181222
122,小川やよい,准教授,東京大学,,,総合研究博物館西秋研究室,,,,,15121000,243,20131226,20131226
123,小川大輝,助教授,滋賀県立大学,,,鳥人間研究会,,,,,15122000,245,20071130,20071130
124,小川了,学生,東邦大学,理学部,,,,,,,15123000,247,20201221,20201221
125,小泉佑介,講師,東京都市大学,,,,,,,,15124000,249,20210601,20210601
126,小野寺幸子,職員,明星大学,,,,,,,,15125000,251,20190620,20190620
127,小野亮,教授,東京大学,,,,,,,,15126000,253,20210111,20210111
128,小林隆史,准教授,大阪府立大学,,,,,,,,15127000,255,20210118,20210118
129,庄村康人,助教授,兵庫県立大学,,,,,,,,15128000,257,20131031,20131031
130,松下龍之介,学生,千葉工業大学,,,,,,,,15129000,259,20150702,20150702
131,松田啓明,講師,電気通信大学,,大学院情報システム学研究科,,,,,,15130000,261,20150421,20150421
132,松田晃史,職員,東京工業大学,,,物質理工学院・材料系,,,,,15131000,263,20170707,20170707
133,松島哲也,教授,名古屋大学大学院,,,工学研究科,,,,,15132000,265,20190516,20190516
134,松本大知,准教授,東京大学大学院,,新領域創成科学研究科,複雑理工学専攻篠田・牧野研究室,,,,,15133000,267,20171115,20171115
135,松本里香,助教授,東京工芸大学工学部,,,,,,,,15134000,269,20191206,20191206
136,沼田,学生,中京大学,情報理工学部,,,,,,,15135000,271,20120419,20120419
137,上村佳奈,講師,信州大学,,,山岳科学研究所,,,,,15136000,273,20170620,20170620
138,上田修司,職員,神戸大学,農学部,,動物資源利用化学分野,,,,,15137000,275,20130808,20130808
139,上路市訓,教授,京都大学,,,,,,,,15138000,277,20151214,20151214
140,植松翔太,准教授,東京工業大学,,,,,,,,15139000,279,20210322,20210322
141,森博史,助教授,法政大学,,,,,,,,15140000,281,20121109,20121109
142,森悠太朗,学生,横浜国立大学,,,,,,,,15141000,283,20201016,20201016
143,深石隆介,講師,芝浦工業大学,,,芝浦衛星チーム,,,,,15142000,285,20170714,20170714
144,真下武久,職員,成安造形大学,,,,,,,,15143000,287,20120724,20120724
145,神垣貴晶,教授,東京大学,,新領域創成科学研究科,複雑理工学専攻篠田・牧野研究室,,,,,15144000,289,20180426,20180426
146,諏訪部武,准教授,大阪歯科大学,,,生理学講座,,,,,15145000,291,20120726,20120726
147,須藤誠一,助教授,東京都市大学,,,,,,,,15146000,293,20140217,20140217
148,水谷,学生,大阪工業大学,,,,,,,,15147000,295,20180514,20180514
149,杉山庸一郎,講師,京都府立医科大学,,,,,,,,15148000,297,20200717,20200717
150,菅田浩司,職員,慶應義塾大学,医学部,,生理学教室,,,,,15149000,299,20131224,20131224
151,成瀬祐里,教授,慶應義塾大学,,,寺坂研究室,,,,,15150000,301,20181030,20181030
152,成木恵,准教授,京都大学,,,,,,,,15151000,303,20170207,20170207
153,清矢良浩,助教授,大阪市立大学大学院,,理学研究科,高エネルギー物理学研究室,,,,,15152000,305,20150507,20150507
154,生駒梨奈,学生,武蔵野美術大学,,,,,,,,15153000,307,20121217,20121217
155,西原由実,講師,慶応義塾大学,,,,,,,,15154000,309,20160801,20160801
156,西田舞,職員,長岡造形大学,,,,,,,,15155000,311,20191022,20191022
157,青地久,教授,京都精華大学,,,,,,,,15156000,313,20121207,20121207
158,青木元秀,准教授,東京薬科大学,生命科学部,,生命分析化学研究室,,,,,15157000,315,20161021,20161021
159,青木正治,助教授,大阪大学大学院,,理学研究科,,,,,,15158000,317,20150219,20150219
160,石井裕剛,学生,京都大学大学院,,エネルギー科学研究科,,,,,,15159000,319,20100618,20100618
161,石川潤,講師,東京大学,,,,,,,,15160000,321,20191219,20191219
162,川端大輔,職員,立命館大学,,,,,,,,15161000,323,20130109,20130109
163,浅田康佑,教授,慶應義塾大学,理工学部,電子工学科,内田研究室,,,,,15162000,325,20150122,20150122
164,浅野一朗,准教授,神戸大学,,,,,,,,15163000,327,20170805,20170805
165,染谷優太,助教授,千葉工業大学,,,加藤研究室,,,,,15164000,329,20131112,20131112
166,前川諒弥,学生,名古屋大学,,,,,,,,15165000,331,20210127,20210127
167,前田寛喜,講師,東京理科大学,,,,,,,,15166000,333,20160224,20160224
168,組地翔太,職員,法政大学大学院,デザイン工学部,システムデザイン学科,佐藤研究室,,,,,15167000,335,20170118,20170118
169,早稲田真平,教授,東京農工大学,工学部,,機械システム工学専攻篠原研究室,,,,,15168000,337,20130919,20130919
170,早坂勇哉,准教授,東京大学大学院,,,人間エネルギー環境研究室,,,,,15169000,339,20171226,20171226
171,増田殊大,助教授,東京大学,,,,,,,,15170000,341,20130809,20130809
172,増田秀征,学生,東京大学,,工学系研究科精密工学専攻,高橋研究室,,,,,15171000,343,20210412,20210412
173,足立敏,講師,愛知教育大学附属高等学校,,,,,,,,15172000,345,20121130,20121130
174,村上義信,職員,豊橋技術科学大学,,,,,,,,15173000,347,20210531,20210531
175,村上洸太,教授,早稲田大学,,先進理工・応化,関根研究室,,,,,15174000,349,20210122,20210122
176,村瀬智一,准教授,明治国際医療大学,,,脳神経外科学ユニット,,,,,15175000,351,20141222,20141222
177,村田芽以,助教授,女子美術大学,,,,,,,,15176000,353,20121206,20121206
178,村木朝子,学生,名古屋大学,,,,,,,,15177000,355,20170726,20170726
179,多々良飛鳥,講師,日本大学,理工学部,,,,,,,15178000,357,20200131,20200131
180,大岩雄典,職員,東京芸術大学,,,,,,,,15179000,359,20170906,20170906
181,大久保洋平,教授,東京大学,,,,,,,,15180000,361,20190405,20190405
182,大沢悠加,准教授,麻布大学,生命・環境科学部,環境科学科,環境分析学研究室,,,,,15181000,363,20190724,20190724
183,大塚,助教授,武蔵野大学,,,,,,,,15182000,365,20080205,20080205
184,大塚誠,学生,武蔵野大学,薬学部薬,,薬学研究所製剤学教室,,,,,15183000,367,20071030,20071030
185,大島敏,講師,東京海洋大学大学院,,,,,,,,15184000,369,20120531,20120531
186,大日方五郎,職員,中部大学,工学部,,ロボット理工学科共通室,,,,,15185000,371,20171216,20171216
187,大保勇人,教授,東京工業大学,,,安岡・竹内研究室,,,,,15186000,373,20140606,20140606
188,大門健太郎,准教授,東京電機大学,,ロボット・メカトロニクス学科,ソフトメカニクス研究室,,,,,15187000,375,20121129,20121129
189,大野美咲,助教授,女子美術大学,,,,,,,,15188000,377,20190719,20190719
190,鷹取慧,学生,近畿大学,生物理工学部,,,,,,,15189000,379,20120829,20120829
191,鷹尾祥典,講師,横浜国立大学,理工学部,,,,,,,15190000,381,20200908,20200908
192,滝口文也,職員,芝浦工業大学,,,航空研究開発部,,,,,15191000,383,20180507,20180507
193,谷田佑莉子,教授,東京農工大学,,,,,,,,15192000,385,20140708,20140708
194,丹羽晶大,准教授,同志社大学,理工学部,,噴霧・燃焼工学研究室,,,,,15193000,387,20160815,20160815
195,池原里美,助教授,女子美術大学,,,,,,,,15194000,389,20131223,20131223
196,池上翔悟,学生,岡山大学,,,,,,,,15195000,391,20190725,20190725
197,池知,講師,東京大学,,,,,,,,15196000,393,20090319,20090319
198,池田茂樹,職員,摂南大学,工学部,機械工学科,,,,,,15197000,395,20100527,20100527
199,池内隼生,教授,筑波大学大学院,,人間総合科学研究科,感性認知脳科学専攻感性科学領域,,,,,15198000,397,20101029,20101029
200,池之俣諒央,准教授,豊橋技術科学大学,,,,,,,,15199000,399,20201016,20201016
201,池本周平,助教授,大阪大学大学院,,基礎工学研究科,,,,,,15200000,401,20180920,20180920
202,竹村佳則,学生,滋賀県立大学,,,航空研究会COOLSWEETS,,,,,15201000,403,20100708,20100708
203,竹内豪,講師,慶應義塾大学,理工学部,電子工学科,内田研究室,,,,,15202000,405,20150126,20150126
204,中安翌,職員,金沢美術工芸大学,,,,,,,,15203000,407,20160702,20160702
205,中岡俊裕,教授,上智大学,,,,,,,,15204000,409,20171124,20171124
206,中原佑,准教授,東京大学,,,地文研究会天文部,,,,,15205000,411,20141002,20141002
207,中山章宏,助教授,名城大学,,,,,,,,15206000,413,20210521,20210521
208,中山泰貴,学生,大同大学,,,,,,,,15207000,415,20121127,20121127
209,中村健太郎,講師,東京大学,,,,,,,,15208000,417,20210308,20210308
210,中村仁,職員,名古屋大学,,工学研究科,,,,,,15209000,419,20210106,20210106
211,中村祐策,教授,滋賀県立大学,,,航空研究会COOLSWEETS,,,,,15210000,421,20110606,20110606
212,中村隆俊,准教授,東京農業大学,,,,,,,,15211000,423,20180615,20180615
213,中島篤朗,助教授,首都大学東京,,システムデザイン研究科,,,,,,15212000,425,20131211,20131211
214,中竜大,学生,東邦大学,理学部,,,,,,,15213000,427,20200630,20200630
215,仲谷正史,講師,北海道大学,,,電子科学研究所,,,,,15214000,429,20170222,20170222
216,仲澤和馬,職員,岐阜大学,教育学部,物理,,,,,,15215000,431,20160209,20160209
217,朝原元夢,教授,名古屋大学,,,工学研究科,,,,,15216000,433,20190605,20190605
218,朝倉正博,准教授,大阪市立大学,,,サプライ工房大阪R&D拠点,,,,,15217000,435,20120713,20120713
219,町田暁洋,助教授,麻布大学,,,,,,,,15218000,437,20170603,20170603
220,長谷川崇,学生,奈良先端技術大学院大学,,,,,,,,15219000,439,20130628,20130628
221,長田康生,講師,滋賀県立大学航空研究会,航空研究会,,,,,,,15220000,441,20160512,20160512
222,勅使河原直人,職員,東京農工大学,,,,,,,,15221000,443,20130819,20130819
223,沈力,教授,大阪大学大学院,,工学研究科,地球総合工学専攻社会基盤設計学領域,,,,,15222000,445,20210128,20210128
224,津村佳余,准教授,千葉大学,,,予防医学センター,,,,,15223000,447,20210225,20210225
225,鄭玉霖,助教授,名古屋大学,,,,,,,,15224000,449,20190607,20190607
226,天野啓人,学生,東京電機大学,,,,,,,,15225000,451,20131108,20131108
227,田口航太郎,講師,東京大学,,,,,,,,15226000,453,20180725,20180725
228,田口大,職員,東京工業大学,,,,,,,,15227000,455,20210406,20210406
229,田中,教授,神戸大学,発達科学部,,大学院人間発達環境学研究科G402,,,,,15228000,457,20091002,20091002
230,田中健作,准教授,宝塚大学,造形芸術学部,,,,,,,15229000,459,20121016,20121016
231,田中昂義,助教授,首都大学東京,,,,,,,,15230000,461,20140623,20140623
232,田中寿典,学生,奈良県立医科大学,,整形外科,,,,,,15231000,463,20130701,20130701
233,田嶋勝一,講師,大分大学,,,,,,,,15232000,465,20151026,20151026
234,田尾賢太郎,職員,東京大学,,,,,,,,15233000,467,20190108,20190108
235,田附直樹,教授,工学院大学,,,,,,,,15234000,469,20131225,20131225
236,田邉孝純,准教授,慶應義塾大学,,,,,,,,15235000,471,20160722,20160722
237,渡辺純子,助教授,多摩美術大学,,,,,,,,15236000,473,20121119,20121119
238,登坂彩,学生,東北芸術工科大学,,,,,,,,15237000,475,20120201,20120201
239,土田修平,講師,神戸大学,,,健康工房塚本・寺田研究室,,,,,15238000,477,20150817,20150817
240,土田泰輔,職員,滋賀県立大学,,,鳥人間研究会,,,,,15239000,479,20131227,20131227
241,藤原正浩,教授,東京大学,,,,,,,,15240000,481,20121204,20121204
242,藤田卓也,准教授,早稲田大学,,,,,,,,15241000,483,20141023,20141023
243,藤堂亮,助教授,滋賀県立大学,,,航空研究会CoolSweets,,,,,15242000,485,20150901,20150901
244,藤本心太,学生,東北大学,,,,,,,,15243000,487,20190227,20190227
245,藤目智博,講師,新潟医療福祉大学,,作業療法学科,,,,,,15244000,489,20171013,20171013
246,内山俊朗,職員,筑波大学,,,,,,,,15245000,491,20100215,20100215
247,内田健,教授,東京大学大学院,,工学系研究科,マテリアル工学専攻,,,,,15246000,493,20191023,20191023
248,二宮悠基,准教授,東京大学,,新領域創成科学研究科複雑理工学専攻,,,,,,15247000,495,20210201,20210201
249,二瓶晃,助教授,京都市立芸術大学,美術学部,美術科,構想設計専攻,,,,,15248000,497,20200120,20200120
250,入江仁士,学生,千葉大学,,,環境リモートセンシング研究センター,,,,,15249000,499,20140124,20140124
251,馬場重樹,講師,滋賀医科大学,,消化器内科,,,,,,15250000,501,20120917,20120917
252,梅谷和弘,職員,岡山大学,,,,,,,,15251000,503,20191219,20191219
253,梅田竜生,教授,東京大学,,,,,,,,15252000,505,20210427,20210427
254,梅木辰也,准教授,佐賀大学,,,,,,,,15253000,507,20200604,20200604
255,白井晴幸,助教授,多摩美術大学,,,映像演劇学科研究室,,,,,15254000,509,20130621,20130621
256,畠中貴翔,学生,大阪大学,,,,,,,,15255000,511,20161105,20161105
257,八賀洋介,講師,慶應義塾大学,,,心理学研究室,,,,,15256000,513,20110713,20110713
258,八谷和彦,職員,東京藝術大学,,,,,,,,15257000,515,20150827,20150827
259,八田振一郎,教授,京都大学大学院,,理学研究科,化学専攻表面化学研究室,,,,,15258000,517,20210416,20210416
260,板谷拓哉,准教授,北海道大学,,情報科学研究科,,,,,,15259000,519,20140627,20140627
261,尾形邦裕,助教授,埼玉大学,,,,,,,,15260000,521,20151210,20151210
262,百田俊一,学生,京都造形芸術大学大学院,,,,,,,,15261000,523,20121221,20121221
263,浜中雅俊,講師,筑波大学,,,,,,,,15262000,525,20131018,20131018
264,冨田裕子,職員,立命館大学,,,野洲ﾒﾃﾞｨｶﾙｲﾒｰｼﾞﾝｸﾞﾃｸﾉﾛｼﾞｰ㈱,,,,,15263000,527,20130613,20130613
265,浮田昂史,教授,大阪大学,,工学研究科電気電子情報工学専攻,伊藤研究室,,,,,15264000,529,20100703,20100703
266,武田晴治,准教授,北海道大学大学院,,,保健科学研究院,,,,,15265000,531,20161208,20161208
267,武内道一,助教授,立命館大学,,,立命館グローバル・イノベーション研究機構,,,,,15266000,533,20120221,20120221
268,服部晋一,学生,大阪大学,,,,,,,,15267000,535,20210219,20210219
269,福留正義,講師,筑波大学,,,,,,,,15268000,537,20110809,20110809
270,平井雅尊,職員,電気通信大学,,,末廣研究室,,,,,15269000,539,20130522,20130522
271,平林孝基,教授,大同大学,,,前田工業,,,,,15270000,541,20151023,20151023
272,米原拓臣,准教授,東京農工大学,,,,,,,,15271000,543,20200123,20200123
273,片桐才華,助教授,法政大学,,,,,,,,15272000,545,20140114,20140114
274,北原直人,学生,東京理科大学,,,野田文化会天文研究会,,,,,15273000,547,20190926,20190926
275,堀川真美,講師,東京工業大学大学院,,理工学研究科,化学専攻渋谷・河合研究室,,,,,15274000,549,20110525,20110525
276,堀内慎高,職員,筑波大学,,,,,,,,15275000,551,20111223,20111223
277,末松潤一,教授,上智大学,理工学部,機械工学科,流体工学研究室,,,,,15276000,553,20140804,20140804
278,鳴島啓介,准教授,法政大学大学院,,,,,,,,15277000,555,20170202,20170202
279,毛利愛実,助教授,多摩美術大学,,プロダクトデザイン学科,,,,,,15278000,557,20160721,20160721
280,木山結,学生,明治大学,,,建築学科建築史・建築論研究室,,,,,15279000,559,20190221,20190221
281,木村郁仁,講師,東京理科大学,,,,,,,,15280000,561,20140604,20140604
282,野島達也,職員,東京工業大学,,,ERATO彌田超集積材料プロジェクト,,,,,15281000,563,20161228,20161228
283,矢崎貴紀,教授,東京理科大学,,,目黒研究室,,,,,15282000,565,20140224,20140224
284,矢部翔太,准教授,東京藝術大学,,,,,,,,15283000,567,20131101,20131101
285,矢野和輝,助教授,東京農工大学,,,,,,,,15284000,569,20141127,20141127
286,柳悦州,学生,沖縄県立芸術大学附属研究所,,,,,,,,15285000,571,20130124,20130124
287,有松亘,講師,京都大学,,理学研究科,附属天文台分室,,,,,15286000,573,20210316,20210316
288,李家賢一,職員,東京大学,,,工学系研究科航空宇宙工学専攻,,,,,15287000,575,20210402,20210402
289,立花孝介,教授,東京工業大学,,,,,,,,15288000,577,20170131,20170131
290,林晃究,准教授,慶應義塾大学,理工学部,システムデザイン工学科,,,,,,15289000,579,20150220,20150220
291,鈴木?智生サムエル,助教授,慶應義塾大学,理工学部,電子工学科?,田邉研究室,,,,,15290000,581,20180214,20180214
292,倭昂司,学生,京都大学大学院,,工学研究科,建築学専攻,,,,,15291000,583,20191112,20191112
293,和田一義,講師,首都大学東京,,システムデザイン研究科,,,,,,15292000,585,20141124,20141124
294,和田泰斗,職員,筑波大学,,,横田研究室,,,,,15293000,587,20180921,20180921
295,和田隆寿,教授,豊橋技術科学大学,,,,,,,,15294000,589,20201229,20201229
296,廣瀬昌憲,准教授,京都大学,,,,,,,,15295000,591,20160314,20160314
297,櫻井優斗,助教授,千葉工業大学,,,加藤研究室,,,,,15296000,593,20140904,20140904
298,眞鍋将太,学生,早稲田大学,,先進理工学部応用化学科,関根研究室,,,,,15297000,595,20170721,20170721
299,眞部寛之,講師,同志社大学,,脳科学研究科,櫻井研究室,,,,,15298000,597,20200922,20200922
300,齋藤賢之,職員,慶應義塾大学,理工学部,電子工学科,内田研究室,,,,,15299000,599,20180626,20180626
301,藏本駿介,教授,慶應義塾大学,,,,,,,,15300000,601,20170615,20170615
302,鐵本智大,准教授,慶應義塾大学,,,,,,,,15301000,603,20160413,20160413
303,關野修,助教授,神奈川工科大学,,自動車システム開発工学科,,,,,,15302000,605,20161207,20161207
